<?xml version="1.0" encoding="UTF-8" standalone="no"?>
<!DOCTYPE svg PUBLIC "-//W3C//DTD SVG 1.1//EN" "http://www.w3.org/Graphics/SVG/1.1/DTD/svg11.dtd">
<svg width="100%" height="100%" viewBox="0 0 225 182" version="1.1" xmlns="http://www.w3.org/2000/svg" xmlns:xlink="http://www.w3.org/1999/xlink" xml:space="preserve" xmlns:serif="http://www.serif.com/" style="fill-rule:evenodd;clip-rule:evenodd;stroke-linejoin:round;stroke-miterlimit:2;">
    <g transform="matrix(1,0,0,1,-510.295,-458.544)">
        <path d="M610.838,468.398L608.165,466.138C604.45,470.535 600.38,476.198 597.205,482.884C594.034,489.566 591.754,497.298 591.753,505.737C591.75,511.874 592.972,518.369 595.873,524.976C598.772,531.586 603.335,538.298 609.944,544.974C613.011,548.075 617.07,549.632 621.083,549.627C623.27,549.627 625.455,549.171 627.487,548.259C629.518,547.347 631.395,545.974 632.936,544.17C636.323,540.207 640.026,535.018 642.905,528.712C645.782,522.41 647.83,514.971 647.829,506.627C647.83,500.695 646.791,494.319 644.336,487.632C641.882,480.942 638.019,473.944 632.405,466.709C630.854,464.708 628.905,463.18 626.775,462.166C624.644,461.151 622.333,460.642 620.022,460.642C617.844,460.642 615.66,461.094 613.625,462.011C611.591,462.925 609.708,464.312 608.165,466.138L610.838,468.398L613.511,470.657C614.376,469.636 615.391,468.894 616.5,468.393C617.608,467.894 618.812,467.642 620.022,467.642C621.306,467.642 622.591,467.926 623.763,468.485C624.937,469.045 625.999,469.873 626.874,471C632.103,477.74 635.585,484.103 637.764,490.043C639.943,495.985 640.827,501.508 640.829,506.627C640.828,513.82 639.074,520.243 636.537,525.806C634.002,531.363 630.678,536.04 627.615,539.621C626.751,540.63 625.732,541.372 624.618,541.873C623.505,542.374 622.297,542.627 621.083,542.627C618.847,542.623 616.637,541.783 614.919,540.05C608.823,533.89 604.797,527.893 602.283,522.164C599.771,516.431 598.756,510.956 598.753,505.737C598.752,498.574 600.693,491.861 603.529,485.886C606.361,479.915 610.084,474.71 613.511,470.657L610.838,468.398Z" style="fill:white;fill-rule:nonzero;"/>
        <path d="M617.088,500.499L617.088,614.832C617.088,616.765 618.655,618.332 620.588,618.332C622.521,618.332 624.088,616.765 624.088,614.832L624.088,500.499C624.088,498.566 622.521,496.999 620.588,496.999C618.655,496.999 617.088,498.566 617.088,500.499Z" style="fill:white;fill-rule:nonzero;"/>
        <path d="M624.139,597.943L623.067,597.89L624.139,597.957L624.139,597.943L623.067,597.89L624.139,597.957C624.143,597.875 624.304,595.467 625.434,591.957C626.282,589.323 627.672,586.07 629.94,582.679C633.349,577.592 638.699,572.173 647.384,567.94C656.069,563.715 668.149,560.684 684.991,560.683C686.924,560.683 688.491,559.116 688.491,557.183C688.491,555.25 686.924,553.683 684.991,553.683C669.032,553.682 656.734,556.282 647.271,560.303C640.177,563.316 634.69,567.131 630.503,571.172C624.215,577.235 620.871,583.767 619.115,588.788C617.357,593.815 617.162,597.346 617.148,597.596C617.052,599.527 618.539,601.17 620.47,601.266C622.401,601.362 624.043,599.874 624.139,597.944L624.139,597.943Z" style="fill:white;fill-rule:nonzero;"/>
        <path d="M624.07,601.025L624.071,600.87C624.07,600.126 624.002,597.024 622.884,592.723C622.045,589.499 620.611,585.597 618.154,581.55C614.478,575.479 608.455,569.105 598.959,564.355C589.463,559.596 576.568,556.445 559.088,556.446C557.155,556.446 555.588,558.013 555.588,559.946C555.588,561.879 557.155,563.446 559.088,563.446C573.888,563.446 584.831,565.815 592.919,569.269C598.987,571.862 603.463,575.059 606.823,578.404C611.855,583.419 614.405,588.811 615.718,593.102C617.029,597.385 617.073,600.544 617.071,600.87L617.071,600.898L618.388,600.911L617.071,600.885L617.071,600.898L618.388,600.911L617.071,600.885C617.032,602.818 618.568,604.416 620.5,604.454C622.433,604.493 624.031,602.958 624.07,601.025Z" style="fill:white;fill-rule:nonzero;"/>
        <path d="M709.61,634.806C709.617,634.559 709.62,634.314 709.62,634.071C709.62,630.915 709.081,627.961 708.054,625.307C706.519,621.324 703.868,618.032 700.478,615.793C697.091,613.547 692.993,612.355 688.623,612.358C685.429,612.357 682.52,612.953 679.983,614.072C676.168,615.743 673.271,618.583 671.388,621.905C669.495,625.232 668.551,629.027 668.389,632.88L671.886,633.025L675.382,632.871C675.129,626.87 672.823,621.646 669.03,618.006C665.248,614.354 660.056,612.349 654.418,612.358C651.223,612.357 648.314,612.953 645.778,614.072C641.963,615.743 639.065,618.583 637.183,621.905C635.29,625.232 634.345,629.027 634.184,632.88L637.681,633.025L641.177,632.871C640.923,626.87 638.617,621.646 634.824,618.006C631.043,614.354 625.851,612.349 620.213,612.358C617.018,612.357 614.109,612.953 611.573,614.072C607.758,615.743 604.86,618.583 602.977,621.905C601.084,625.232 600.139,629.027 599.978,632.88L603.475,633.025L606.971,632.871C606.718,626.87 604.412,621.646 600.619,618.006C596.837,614.354 591.645,612.349 586.007,612.358C582.812,612.357 579.903,612.953 577.367,614.072C573.552,615.743 570.654,618.583 568.771,621.905C566.878,625.232 565.934,629.027 565.773,632.88L569.27,633.025L572.766,632.871C572.512,626.87 570.206,621.646 566.413,618.006C562.632,614.354 557.44,612.349 551.802,612.358C548.486,612.356 545.477,613 542.874,614.201C538.958,615.996 536.046,619.032 534.217,622.54C532.377,626.057 531.544,630.04 531.541,634.052C531.541,634.304 531.544,634.555 531.551,634.808C531.602,636.74 533.21,638.265 535.143,638.214C537.075,638.162 538.6,636.554 538.549,634.622C538.544,634.432 538.541,634.242 538.541,634.052C538.54,632.03 538.827,630.066 539.384,628.294C540.225,625.628 541.641,623.434 543.609,621.894C544.598,621.121 545.735,620.5 547.081,620.058C548.425,619.618 549.983,619.359 551.802,619.358C555.824,619.368 559.136,620.726 561.558,623.048C563.968,625.381 565.565,628.74 565.773,633.18C565.856,635.058 567.395,636.528 569.274,636.525C571.154,636.523 572.689,635.048 572.766,633.17C572.846,631.24 573.191,629.384 573.784,627.718C574.678,625.213 576.096,623.168 578.034,621.727C579.981,620.293 582.498,619.369 586.007,619.358C590.03,619.368 593.342,620.726 595.763,623.048C598.174,625.381 599.771,628.74 599.978,633.18C600.061,635.058 601.599,636.528 603.479,636.525C605.359,636.523 606.894,635.048 606.972,633.17C607.051,631.24 607.396,629.384 607.989,627.718C608.884,625.213 610.301,623.168 612.24,621.727C614.187,620.293 616.704,619.369 620.213,619.358C624.236,619.368 627.547,620.726 629.969,623.048C632.379,625.381 633.976,628.74 634.184,633.18C634.267,635.058 635.806,636.528 637.686,636.525C639.565,636.523 641.1,635.048 641.178,633.17C641.257,631.24 641.602,629.384 642.195,627.718C643.09,625.213 644.507,623.168 646.445,621.727C648.392,620.293 650.909,619.369 654.418,619.358C658.441,619.368 661.753,620.726 664.174,623.048C666.585,625.381 668.182,628.74 668.389,633.18C668.472,635.058 670.011,636.528 671.891,636.525C673.77,636.523 675.305,635.048 675.383,633.17C675.462,631.24 675.807,629.384 676.4,627.718C677.295,625.213 678.712,623.168 680.651,621.727C682.598,620.293 685.115,619.369 688.623,619.358C692.78,619.369 696.179,620.815 698.621,623.282C699.842,624.523 700.83,626.036 701.525,627.832C702.219,629.627 702.619,631.708 702.62,634.071C702.62,634.254 702.617,634.438 702.613,634.624C702.562,636.556 704.088,638.163 706.02,638.214C707.953,638.264 709.56,636.738 709.61,634.806Z" style="fill:white;fill-rule:nonzero;"/>
        <path d="M726.493,553.978L728.89,551.427C724.493,547.298 718.728,542.705 711.799,539.102C704.875,535.504 696.75,532.893 687.764,532.893C681.938,532.89 675.772,533.998 669.442,536.585C663.11,539.17 656.622,543.223 650.069,549.061C646.587,552.16 644.811,556.479 644.816,560.765C644.81,564.856 646.432,568.995 649.664,572.063C653.646,575.845 658.967,580.049 665.571,583.337C672.169,586.622 680.076,588.981 689.072,588.979C694.688,588.98 700.714,588.06 707.064,585.922C713.415,583.786 720.089,580.438 727.046,575.604C729.25,574.074 730.947,572.07 732.075,569.847C733.205,567.623 733.777,565.181 733.777,562.73C733.777,560.688 733.379,558.636 732.566,556.703C731.754,554.771 730.523,552.96 728.89,551.427L726.493,553.978L724.096,556.528C725.01,557.388 725.67,558.365 726.114,559.418C726.556,560.469 726.777,561.597 726.777,562.73C726.777,564.089 726.458,565.451 725.835,566.675C725.21,567.901 724.292,568.992 723.052,569.855C716.572,574.357 710.492,577.383 704.832,579.288C699.17,581.191 693.926,581.978 689.072,581.979C681.306,581.977 674.504,579.96 668.689,577.07C662.88,574.182 658.083,570.409 654.486,566.989C652.691,565.279 651.821,563.045 651.816,560.765C651.821,558.377 652.781,556.022 654.725,554.288C660.77,548.904 666.579,545.316 672.089,543.066C677.6,540.817 682.818,539.895 687.764,539.892C695.377,539.892 702.392,542.104 708.571,545.314C714.744,548.518 720.044,552.718 724.096,556.528L726.493,553.978Z" style="fill:white;fill-rule:nonzero;"/>
        <path d="M520.291,543.791L522.12,546.773C525.981,544.403 530.703,541.945 535.938,540.096C541.176,538.245 546.917,537.005 552.847,537.006C558.928,537.011 565.205,538.288 571.541,541.591C577.872,544.899 584.296,550.264 590.51,558.619C591.68,560.196 592.226,561.99 592.229,563.789C592.229,565.225 591.872,566.651 591.188,567.913C590.503,569.177 589.504,570.276 588.174,571.105C584.81,573.197 580.652,575.356 575.921,576.981C571.189,578.607 565.891,579.7 560.203,579.7C554.309,579.697 547.99,578.538 541.325,575.521C534.662,572.501 527.639,567.606 520.447,560.036C518.826,558.326 518.065,556.212 518.06,554.074C518.059,552.64 518.414,551.215 519.094,549.957C519.778,548.698 520.774,547.602 522.12,546.773L520.291,543.791L518.46,540.808C516.049,542.285 514.18,544.326 512.937,546.628C511.692,548.931 511.06,551.495 511.06,554.074C511.055,557.905 512.474,561.813 515.372,564.857C523.09,572.984 530.857,578.465 538.436,581.897C546.011,585.333 553.383,586.703 560.203,586.7C566.792,586.7 572.86,585.435 578.196,583.601C583.534,581.766 588.146,579.364 591.869,577.05C594.25,575.572 596.104,573.541 597.345,571.244C598.588,568.945 599.229,566.381 599.229,563.789C599.232,560.55 598.217,557.25 596.128,554.443C589.397,545.385 582.161,539.237 574.781,535.386C567.404,531.53 559.918,530.002 552.847,530.006C545.94,530.007 539.426,531.44 533.606,533.496C527.784,535.554 522.646,538.238 518.46,540.808L520.291,543.791Z" style="fill:white;fill-rule:nonzero;"/>
    </g>
</svg>
